{
  "APIkey":"",
  "throttle":20,
  "historyThrottle":3,
  "histPage":25,
  "host": {
    "default": ["https://tomo.nownodes.io","https://rpc.tomochain.com","https://rpc.viction.xyz","https://viction.blockpi.network/v1/rpc/public"],
    "unspent": "https://rpc.tomochain.com",
    "history": "https://tomoscan.io/api"
  }
}
