{
  "symbol": "dummy",
  "name": "Dummycoin (test coin for hybrix)",
  "module": "quartz",
  "mode": "dummycoin",
  "addressRegex": "^_dummyaddress_$$",
  "transactionRegex": "^TX[012]\\d$$",
  "import": "transaction-history",
  "apiProvidesFullTx": false,
  "factor": 8,
  "confirmed": 1,
  "fee-factor": 8,
  "fee": 0.15,
  "cache": 10000,
  "throttle": 10,
  "features": {
    "message": false,
    "test": true
  },
  "notes": {
    "send": "Dummy send does not really work.",
    "history": "Dummy history does not really work."
  },
  "quartz": {
    "unspent": [
      "done [{amount:'$3',txid:TX01,txn:1}]"
    ],
    "balance": [
      "data '10000.00000000'"
    ],
    "push": [
      "wait 3000",
      "done TX01"
    ],
    "test": [
      "done {hash:'1AC939DA'}"
    ],
    "sample": [
      "stop {address:'_dummyaddress_',transaction:TX01}"
    ],
    "confirmed/transactionId": [
      "test transactionId 2 1",
      "done $confirmed",
      "regx transactionId $transactionRegex 2 1",
      "fail 'Illegal transaction id.'",
      "done 1"
    ],
    "block/blockId": [
      "test blockId 1 @returnBlock",
      "ship blockId 1 @returnBlock 1 1",
      "fail 'Illegal block id.'",
      "@returnBlock",
      "call history/_dummyaddress_",
      "done {transactions:$, blockId:0}"
    ],
    "transaction/transactionId": [
      "regx transactionId $transactionRegex 2 1",
      "fail 'Illegal transaction id.'",
      "with now date now",
      "with txTime [data,'$transactionId'] [tail,2] [math,'* 3600'] [math,'+ $now'] [math,round]",
      "data {id:$transactionId,timestamp:$txTime,amount:'10', fee:'$fee', source:_dummyaddress_,target:_dummyaddress_, symbol:$symbol,'fee-symbol':$symbol}"
    ],
    "message/transactionId": [
      "regx transactionId $transactionRegex 2 1",
      "fail 'Illegal transaction id.'",
      "flow transactionId TX01 1 2",
      "done 'Hello World!'",
      "done ''"
    ],
    "getHistory/address/count=12/offset=0": [
      "data [TX29,TX28,TX27,TX26,TX25,TX24,TX23,TX22,TX21,TX20,TX19,TX18,TX17,TX16,TX15,TX14,TX13,TX12,TX11,TX10,TX09,TX08,TX07,TX06,TX05,TX04,TX03,TX02,TX01]",
      "take $offset $count"
    ]
  }
}
