{
  "symbol": "eth.brat",
  "name": "BRAT",
  "module": "ethereum",
  "import": "eth",
  "mode": "ethereum.token",
  "contract": "0x9E77D5a1251b6F7D456722A6eaC6D2d5980bd891",
  "originator": "0x328414DbDDBA1aBfDEA8C0Eb51E588dB5E8D08Df",
  "factor": 8
}
