{
  "symbol": "eth.coval",
  "name": "Circuits of Value",
  "module": "ethereum",
  "import": "eth",
  "mode": "ethereum.token",
  "contract": "0x3d658390460295fb963f54dc0899cfb1c30776df",
  "originator": "0x5a63264914a1ecb626e32e8ad683704ba7b0621f",
  "factor": 8
}
