{
  "symbol": "eth.omg",
  "name": "OmiseGo",
  "module": "ethereum",
  "import": "eth",
  "mode": "ethereum.token",
  "contract": "0xd26114cd6EE289AccF82350c8d8487fedB8A0C07",
  "originator": "0x140427a7D27144A4cDa83bD6b9052a63b0c5B589",
  "factor": 18
}
