{
  "symbol": "eth.neog",
  "name": "NEO GOLD",
  "module": "ethereum",
  "import": "eth",
  "mode": "ethereum.token",
  "contract": "0x449574C69f3A658794829eD81639A7A9ECe041E1",
  "originator": "0x61DDb6704A84CD906ec8318576465b25aD2100fd",
  "factor": 0
}
