{
  "symbol": "burst.BURSity",
  "name": "BURSity",
  "module": "nxt",
  "mode": "nxt.burst-token",
  "contract": "18318635463937398976",
  "originator": "BURST-3U24-2PLM-AXRA-AG45H",
  "factor": 0
}
