{
  "symbol": "burst.BiggestEM",
  "name": "BiggestEM",
  "module": "nxt",
  "mode": "nxt.burst-token",
  "contract": "11086038929462719072",
  "originator": "BURST-AJVR-3JF9-GS32-4LVPM",
  "factor": 0
}
