{
  "symbol": "burst.edge1978",
  "name": "edge1978",
  "module": "nxt",
  "mode": "nxt.burst-token",
  "contract": "16387422001621445689",
  "originator": "BURST-KRPW-9A3T-M4JA-9TN3K",
  "factor": 0
}
