{
  "symbol": "burst.Gamblerize",
  "name": "Gamblerize",
  "module": "nxt",
  "mode": "nxt.burst-token",
  "contract": "4648411829203119942",
  "originator": "BURST-LDH8-SKVZ-UBPW-7UFK5",
  "factor": 0
}
