{
  "symbol": "burst.NEWSILVER",
  "name": "NEWSILVER",
  "module": "nxt",
  "mode": "nxt.burst-token",
  "contract": "4445759384780677962",
  "originator": "BURST-4MKT-LBA6-LY4V-8YAGG",
  "factor": 4
}
