{
  "symbol": "burst.518Bonus",
  "name": "518Bonus",
  "module": "nxt",
  "mode": "nxt.burst-token",
  "contract": "2539278261909485422",
  "originator": "BURST-FUMW-RK7T-LCR4-ACLUL",
  "factor": 8
}
