{
  "symbol": "burst.Playground",
  "name": "Playground",
  "module": "nxt",
  "mode": "nxt.burst-token",
  "contract": "10547676342943478738",
  "originator": "BURST-PG9F-YS79-NKVM-22TQT",
  "factor": 0
}
