{
  "symbol": "xem.thanks-3",
  "name": "myheart : thanks (NEM)",
  "module": "quartz",
  "mode": "nem.mosaic",
  "import": "xem",
  "contract": "myheart:thanks",
  "originator": "NDW4ET2EF5LTK3FKBVNYNBIXME6D5FA3F7NFA6LD",
  "factor": 0
}
