{
  "symbol": "xem.bad",
  "name": "myheart : bad (NEM)",
  "module": "quartz",
  "mode": "nem.mosaic",
  "import": "xem",
  "contract": "myheart:bad",
  "originator": "NDW4ET2EF5LTK3FKBVNYNBIXME6D5FA3F7NFA6LD",
  "factor": 0
}
