{
  "symbol": "xem.tkn4",
  "name": "fund-platform.areum-fund : tkn4 (NEM)",
  "module": "quartz",
  "mode": "nem.mosaic",
  "import": "xem",
  "contract": "fund-platform.areum-fund:tkn4",
  "originator": "NDCNQ2PWNHSRX2K4V7YLOKDVACFVIPG5Z26TJI43",
  "factor": 6
}
