{
  "symbol": "xem.metalmax",
  "name": "familycomputer : metalmax (NEM)",
  "module": "quartz",
  "mode": "nem.mosaic",
  "import": "xem",
  "contract": "familycomputer:metalmax",
  "originator": "NDVANFB53PLKILI4ESDDNHYLKXDMEHNQGXJI65KH",
  "factor": 0
}
