{
  "symbol": "xem.01027",
  "name": "mosaone : 01027 (NEM)",
  "module": "quartz",
  "mode": "nem.mosaic",
  "import": "xem",
  "contract": "mosaone:01027",
  "originator": "NAMZUV3VOPSZ3JMKZFPYAKKT7RROYBG24LI6AAT4",
  "factor": 0
}
