{
  "symbol": "xem.nmz001",
  "name": "yassan : nmz001 (NEM)",
  "module": "quartz",
  "mode": "nem.mosaic",
  "import": "xem",
  "contract": "yassan:nmz001",
  "originator": "NDCJKTT35CX4WWAI5ZMWS2EXXQDHDDLXEP4JK3K5",
  "factor": 0
}
