{
  "symbol": "xem.006",
  "name": "nembear : 006 (NEM)",
  "module": "quartz",
  "mode": "nem.mosaic",
  "import": "xem",
  "contract": "nembear:006",
  "originator": "NCYWDOKBFL2Z3JC4SASVBSMZIVNVK3XF4PWAWUSJ",
  "factor": 0
}
