{
  "symbol": "xem.kitty",
  "name": "rootdev.icofund : kitty (NEM)",
  "module": "quartz",
  "mode": "nem.mosaic",
  "import": "xem",
  "contract": "rootdev.icofund:kitty",
  "originator": "NCYL4Q6CDOYWRFFRYJXH4BZPWUHDCRG7KWCNJJKQ",
  "factor": 6
}
