{
  "symbol": "xem.levy-3",
  "name": "qaaz.gz : levy (NEM)",
  "module": "quartz",
  "mode": "nem.mosaic",
  "import": "xem",
  "contract": "qaaz.gz:levy",
  "originator": "NB24NHKJ6EHFFK3RFY2OW4I6ZTJHCFRC6F24HX5V",
  "factor": 6
}
