{
  "symbol": "xem.no_ccg0",
  "name": "coin_monster : no_ccg0 (NEM)",
  "module": "quartz",
  "mode": "nem.mosaic",
  "import": "xem",
  "contract": "coin_monster:no_ccg0",
  "originator": "NBQA6TLEOTVD5WKA7E7DN373KTRARTG2PN6OT6E4",
  "factor": 0
}
