{
  "symbol": "xem.dogfood",
  "name": "wanko : dogfood (NEM)",
  "module": "quartz",
  "mode": "nem.mosaic",
  "import": "xem",
  "contract": "wanko:dogfood",
  "originator": "NCW2Q2ZWQXYWZB3YF5PXB2YKXCRE3FQVBVL377DW",
  "factor": 1
}
