{
  "id": "insight.atb",
  "name": "ATBCoin Insight Blockexplorer",
  "module": "blockexplorer",
  "mode": "atbcoin.insight",
  "factor": 8,
  "host": [
    "https://explorer.atbcoin.com/atb-insight-api"
  ],
  "cache": 1000,
  "throttle": 2
}
