{
  "engine": "deal",
  "name": "Create a deal between provider (node) and client",
  "cache": 60000,
  "timeout": 120000,
  "cron": 10,
  "txidRegex": "^[:.,a-zA-Z0-9]+$",
  "claimDeadline": 300,
  "asktxDeadline": 21600,
  "purgeDeadline": 21600,
  "retryPushTime": 300,
  "txGracePeriod": 180,
  "dealsListSize": 1000,
  "maxAccountLock": 1800,
  "maxActiveProposals": 32,
  "gateLimiter": 8,
  "dealFactor": 18,
  "checkRemittance": [],
  "errorStringBusy": "Swap system is currently too busy!",
  "permissions": {
    "nodeKeys": true
  },
  "conf": {
    "enabled": {
      "default": false,
      "type": "boolean",
      "requiresRestart": true
    }
  },
  "expose": {
    "allocation": [
      "readHistory",
      "getAccountLock",
      "deleteAccountLock"
    ],
    "allocation-stats": [
      "readHistory"
    ]
  },
  "quartz": {
    "ledgerExceptions/fromBase/toSymbol/amount/target": [
      "flow toSymbol {xrp:@xrp} @success",
      "@success",
      "done 'No ledger exceptions'",
      "@xrp",
      "true '$amount >= 20' @success",
      "void target null @success 1",
      "call '${toSymbol}::balance/$target'",
      "ship 1 1 @failure @failure",
      "true '($ + $amount) >= 20' @success",
      "fail 503 'Ripple requires an activation balance! Either swap 20 XRP or more to activate target.'",
      "@failure",
      "fail 500 'Error handling determine ledger exceptions for $toSymbol!'"
    ],
    "cron": [
      "call proposalHandler",
      "void 2 1",
      "logs"
    ],
    "pairs/type": [
      "gate limit $gateLimiter '$errorStringBusy'",
      "call allocation::listPair/*",
      "each pairsEach",
      "excl null",
      "sort"
    ],
    "pairsEach": [
      "with pair [data,'${.value}'] [splt,':']",
      "call allocation::ledgers",
      "with nativeA [data,'${pair[0]}'] [splt,'.'] [pick]",
      "incl $nativeA @supported 1",
      "with nativeB [data,'${pair[1]}'] [splt,'.'] [pick]",
      "incl $nativeB @supported @null",
      "@supported",
      "data '${pair[0]}:${pair[1]}'",
      "done",
      "@null",
      "done null"
    ],
    "estimate/fromBase/toSymbol/amount": [
      "gate limit $gateLimiter '$errorStringBusy'",
      "time 90000",
      "prog 0 1 90",
      "call proposalCreate/$fromBase/$toSymbol/$amount"
    ],
    "proposal/fromBase/toSymbol/amount/target": [
      "gate limit $gateLimiter '$errorStringBusy'",
      "time 120000",
      "prog 0 1 120",
      "call proposalCreate/$fromBase/$toSymbol/$amount/$target"
    ],
    "proposalHandler": [
      "call selectFromProposalList",
      "void 'void' @notExist",
      "poke proposalKey",
      "load $proposalKey 1 @removeFromQueue",
      "decr 1 @removeFromQueue",
      "jpar 1 @removeFromQueue",
      "have .accountID 1 @removeFromQueue",
      "poke accountID ${.accountID}",
      "# check if end-user has sent their transaction, and what the status is",
      "call dealStatus",
      "poke proposalID ${.id}",
      "with deadline [data,${.deadline}] [ship,2,1,1,1] [done,0]",
      "with timeNow date now",
      "with txStasis [true,'$timeNow > ($deadline + $purgeDeadline)',1,2] [done,1] [done,0]",
      "with txTimeout [data,${.status}] [flow,'timeout',1,2] [done,1] [done,0]",
      "with txRejected [data,${.status}] [flow,'rejected',1,2] [done,1] [done,0]",
      "with txDone [data,${.status}] [true,'${.progress} == 1',1,2] [done,1] [done,0]",
      "test txDone @removeFromQueue",
      "with typeAuto [data,${.type}] [flow,'autonomous',1,2] [done,1] [done,0]",
      "test typeAuto 1 @defer",
      "# DEPRECATED: here we can test for false remittances by comparing it to progress to see if it did not really happen!",
      "# with txFalseRemittance [data,'${.bid.symbol}'] [head,3] [flow,$checkRemittance,1,3] [data,${.pushtime}] [void,any,1,2] [done,0] [true,'${.progress} < 0.5 or ${.progress} > 0.525 or (${.pushtime} + $retryPushTime) > $timeNow',-1,1] [done,1]",
      "# test txFalseRemittance 1 @noFalseRemittance",
      "# with pushRecord call remitted/$proposalID/_reset",
      "# jump @pushTx",
      "# @noFalseRemittance",
      "with txConfirmed [data,${.bid.txid}] [void,2,1] [done,0] [data,${.status}] [flow,'accepted',2,1] [done,0] [true,'${.progress} == 0.5',1,-1] [done,1]",
      "test txConfirmed 1 @defer",
      "# here we make sure transaction push retries do not happen too fast",
      "void .pushtime any @pushTx 1",
      "true '(${.pushtime} + $retryPushTime) < $timeNow' @pushTx @deferPush",
      "@pushTx",
      "poke storeTx",
      "hook @deferPush",
      "with pushRecord call remitted/$proposalID/_timeset",
      "data [$accountID,${.bid.symbol},${.bid.amount},${.bid.target}]",
      "jstr",
      "encr",
      "logs 'pushing transaction for $proposalID...'",
      "call pushTransaction/$proposalID/$",
      "done",
      "@deferPush",
      "peek storeTx",
      "test txStasis @removeFromQueueNoReserveUnlock",
      "done 'proposal $proposalID has a deferred remittance'",
      "@defer",
      "test txStasis @removeFromQueueNoReserveUnlock",
      "# test txTimeout @attemptDetermineClaim",
      "test txTimeout @removeFromQueueWithRebalance",
      "test txRejected @removeFromQueueWithRebalance",
      "with report [void,proposalID,any,2,1] [done,'Proposal $proposalID with status ${.status} is pending'] [done,null]",
      "done $report",
      "@attemptDetermineClaim",
      "with claimTXID call determineClaim/${.ask.symbol}/${.ask.amount}/${.ask.target}/${.creation}",
      "logs 'Attempt to claim ${proposalID} using TXID ${claimTXID}...'",
      "void claimTXID any @removeFromQueueWithRebalance",
      "call claim/$proposalID/$claimTXID",
      "done",
      "@removeFromQueueWithRebalance",
      "with rebalanceValue [math,'${.bid.amount} + ${.fees.network}']",
      "with fPID fork rebalanceCall/$accountID/${.bid.symbol}/$rebalanceValue",
      "@removeFromQueue",
      "with fPID fork setAccountLock/$accountID/${.bid.symbol}/0",
      "with fPID fork securityReserveLock/$accountID/$proposalID/unlock",
      "@removeFromQueueNoReserveUnlock",
      "with fPID call deleteFromProposalList/$proposalKey",
      "with itemSpec [data,$proposalID] [void,any,1,2] [done,'storage key $proposalKey'] [done,'proposal $proposalID']",
      "poke returnResult '$itemSpec removed from queue | txDone ${txDone}, txTimeout ${txTimeout}, txStasis ${txStasis}, txRejected ${txRejected}'",
      "# send notification if swap is somehow stuck",
      "with [.ask.symbol,.bid.symbol] case upper",
      "with notify [test,txDone,1,2] [done,null] [logs,'deal in stasis, sending notification!'] [data,{pair:'${.ask.symbol} -> ${.bid.symbol}',dealDetails:'  ${returnResult}\n\n  ID: ${proposalID}\n  received: ${.ask.amount} ${.ask.symbol}\n  target: ${.ask.target}\n  txid: ${.ask.txid}\n\n  pending: ${.bid.amount} ${.bid.symbol}\n  target: ${.bid.target}\n  txid: ${.bid.txid}\n'}] [fork,'allocation::notify/$accountID/dealFailure']",
      "done '$returnResult'",
      "@notExist",
      "done null"
    ],
    "proposalCreate/fromBase/toSymbol/amount/target=null": [
      "time 120000",
      "ship amount 4 1 1 2",
      "fail 403 'Proposal amount must be higher than zero!'",
      "poke rateEstimation true",
      "poke amount 1",
      "poke reference $amount",
      "# > handle specific symbol exceptions",
      "call ledgerExceptions/$fromBase/$toSymbol/$amount/$target",
      "# > check if swap system not too busy for new proposals",
      "call countProposalList",
      "true '>=$maxActiveProposals' 1 2",
      "fail 503 '$errorStringBusy'",
      "# > check if ledgers systems are available",
      "call allocation::ledgers",
      "with fromNativeBase [data,'$fromBase'] [case,lower] [splt,'.'] [pick]",
      "incl '$fromNativeBase' 1 @unavailable",
      "with toNativeSymbol [data,'$toSymbol'] [case,lower] [splt,'.'] [pick]",
      "incl '$toNativeSymbol' @supported @unavailable",
      "@unavailable",
      "fail 503 'Swap pair is unavailable or undergoing maintenance!'",
      "@supported",
      "# > find best allocator available for this proposal",
      "flow target null 1 @hasTarget   # if estimating, take a fractional amount",
      "with toUnit call 'valuations::rate/usdt/$toSymbol'",
      "poke amount $toUnit",
      "@hasTarget",
      "call 'allocation::pair/select/$fromBase/$toSymbol/$amount'",
      "have .accountID 2 1",
      "fail 409 'Proposal cannot continue: No allocator accepts this proposal!'",
      "poke allocation",
      "with allocation.fee [excl,'%']",
      "# > gather some extra variables",
      "with timestamp [date,now] [math,'round']",
      "# > get conversion rate",
      "with rate call 'valuations::rate/$toSymbol/$fromBase/1'",
      "# > calculate conversion",
      "call calcNetworkFeesBaseDenominated/$fromBase/$toSymbol",
      "void 1 2",
      "fail 404 'Proposal cannot continue: Cannot get network fee data!'",
      "poke networkFee",
      "with allocatorFee [math,'$amount * $rate * (${allocation.fee} / 100)']",
      "with feesTotal math '$allocatorFee + $networkFee/($reference/$amount)'",
      "with baseAmount [math,'$amount * $rate']",
      "with baseAmountPlusFee [math,'$baseAmount + $feesTotal']",
      "with fromFactor call '${fromBase}::factor'",
      "with toFactor call '${toSymbol}::factor'",
      "# ! include maximum tradable amounts",
      "with maxBidSufficiency [call,'allocation::pair/stats/$fromBase/$toSymbol'] [tran,.[$fromBase:$toSymbol].sufficiency,2,1] [done,0] [math,'/ $rate'] [form,$toSymbol]",
      "with maxAskSufficiency [math,'$maxBidSufficiency * $rate'] [form,$fromBase]",
      "# !  skip reserving amount and defining creation, deadline and recipient values if only estimating",
      "flow target null @estimateProposal 1",
      "# Validate target address",
      "call '${toSymbol}::validate/$target'",
      "test 2 1",
      "fail 409 'Could not validate target address!'",
      "flow valid 2 1",
      "fail 403 'Target $target is not a valid $toSymbol address.'",
      "with creation [date,now] [math,round]",
      "with deadline math '$creation + $claimDeadline' round",
      "# > return target to accept payment, reserve needed amounts, and adjust feelevel",
      "with recipient call 'allocation::getAddressAccount/${allocation.accountID}/$fromBase'",
      "fork rebalanceCall/${allocation.accountID}/$toSymbol/-$amount",
      "# > define proposal/estimate contents",
      "@estimateProposal",
      "poke proposalData { ask: {symbol:'$fromBase',amount:'$baseAmountPlusFee',sufficiency:'$maxAskSufficiency'}, bid: {symbol:'$toSymbol',amount:'$amount',sufficiency:'$maxBidSufficiency'}, fees: {symbol:'$fromBase',allocator:'$allocatorFee',network:'$networkFee'} }",
      "flow target null 1 @saveProposal",
      "test rateEstimation @skipCeiling",
      "with proposalData.ask.amount [math,'* ($reference / $toUnit)'] [math,'*10^$fromFactor','ceil','/10^$fromFactor']",
      "with proposalData.bid.amount [math,'* ($reference / $toUnit)'] [math,'*10^$toFactor','floor','/10^$toFactor']",
      "# > are we swapping a high enough amount? avoid going lower than networkFee to avoid dust errors",
      "true '${proposalData.bid.amount} == 0 or ${proposalData.bid.amount} < (${networkFee} * (1 / $rate))' 1 @skipNormal",
      "fail 403 'Amount too low to initiate swap!'",
      "@skipCeiling",
      "with proposalData.ask.amount [math,'* ($reference / $toUnit)'] [form,$dealFactor]",
      "with proposalData.bid.amount [math,'* ($reference / $toUnit)'] [form,$dealFactor]",
      "@skipNormal",
      "with proposalData.fees.allocator [math,'* ($reference / $toUnit)'] [form,$dealFactor]",
      "done $proposalData",
      "# > finalize, save and return proposal object",
      "@saveProposal",
      "with proposalData.ask.amount math '*10^$fromFactor' 'ceil' '/10^$fromFactor'",
      "with proposalData.bid.amount math '*10^$toFactor' 'floor' '/10^$toFactor'",
      "with proposalData.fees.allocator form $dealFactor",
      "poke [proposalData.type,proposalData.ask.target,proposalData.bid.target,proposalData.ask.txid,proposalData.bid.txid] ['${allocation.type}','$recipient','$target',null,null]",
      "with proposalIDa [data,'deal ${allocation.accountID} $fromBase $baseAmountPlusFee $recipient'] [hash,djb2] [case,lower]",
      "with proposalIDb [data,'deal ${allocation.accountID} $toSymbol $amount $target $deadline'] [hash,djb2] [case,lower]",
      "poke proposal { id: '${proposalIDa}${proposalIDb}', ask: ${proposalData.ask}, bid: ${proposalData.bid}, fees: ${proposalData.fees}, type: ${proposalData.type}, creation:$creation, deadline:$deadline, pushtime:null }",
      "data { accountID: '${allocation.accountID}', timestamp: $timestamp, deal: $proposal }",
      "jstr",
      "encr",
      "with keyHash [data,'deal ${allocation.accountID}'] [hash] [take,-16] [push,'$proposalIDb',0] [push,'$proposalIDa',0]",
      "save $keyHash",
      "fork securityReserveLock/${allocation.accountID}/${proposal.id}/lock",
      "fork addToProposalList/$keyHash",
      "done $proposal"
    ],
    "countProposalList": [
      "peek local::proposalList []",
      "size"
    ],
    "addToProposalList/key": [
      "peek local::proposalList []",
      "push $key",
      "uniq",
      "poke local::proposalList"
    ],
    "selectFromProposalList": [
      "# we increase the list size by 10 to ensure no race condition when handling few proposals",
      "with listSize [peek,local::proposalList,[]] [size] [math,'+5']",
      "true '($listSize - 5) < 1' @finished",
      "with listCount [peek,local::proposalCount,0]",
      "true '$listCount < $listSize' 2 1",
      "poke listCount 0",
      "peek local::proposalList",
      "pick $listCount",
      "with listCount [math,'+1'] [poke,local::proposalCount]",
      "@finished"
    ],
    "deleteFromProposalList/key": [
      "peek local::proposalList []",
      "excl $key",
      "uniq",
      "poke local::proposalList",
      "# add to the completed deals list",
      "call addToCompleteList/$key"
    ],
    "requeueToProposalList/key": [
      "call addToProposalList/$key",
      "call deleteFromCompleteList/$key"
    ],
    "addToCompleteList/key": [
      "peek local::completeList []",
      "push $key 0",
      "uniq",
      "head $dealsListSize",
      "poke local::completeList"
    ],
    "deleteFromCompleteList/key": [
      "peek local::completeList []",
      "excl $key",
      "uniq",
      "poke local::completeList"
    ],
    "calcNetworkFeesBaseDenominated/source/target": [
      "call '${target}::details'",
      "poke targetFee ${.fee}",
      "# recalculate target network fee into source network denomination",
      "hook @rateFail",
      "call 'valuations::rate/${.fee-symbol}/$source/$targetFee'",
      "ship 2 1 1 1",
      "@rateFail",
      "done null"
    ],
    "getProposal/proposalID": [
      "list $proposalID*",
      "pick",
      "poke key",
      "test 1 @failure",
      "load 1 @failure",
      "decr 1 @failure",
      "jpar 1 @failure",
      "poke .key $key",
      "done",
      "@failure",
      "fail 'Proposal $proposalID cannot be read!'"
    ],
    "remit/proposalID/transaction": [
      "gate limit $gateLimiter '$errorStringBusy'",
      "# get transaction data and empty data buffer",
      "flow transaction '_' 2 1",
      "peek transaction",
      "poke rawTx",
      "data null",
      "time 120000",
      "# TODO: check if already being remitted using hash table, and if so, block double remits!",
      "call getProposal/$proposalID",
      "test .deal.ask.txid 1 2",
      "done '${.deal.ask.txid}'",
      "time 300000",
      "call '${.deal.ask.symbol}::push/$rawTx'",
      "regx '$txidRegex' 2 1",
      "fail 'Remittance transaction is invalid!'",
      "with claimPID fork claim/$proposalID/$"
    ],
    "claim/proposalID/transactionID": [
      "gate limit $gateLimiter '$errorStringBusy'",
      "time 120000",
      "root @getProposal 1",
      "peek local::claimList []",
      "find $transactionID @submitted",
      "with listSize [data,$] [size]",
      "true '$listSize < 1000' 2 1",
      "take -1",
      "push $transactionID 0",
      "uniq",
      "poke local::claimList",
      "@getProposal",
      "call getProposal/$proposalID",
      "root 2 1",
      "test .deal.ask.txid @submitted",
      "poke .deal.ask.txid $transactionID",
      "call setAccountLock/${.accountID}/${.deal.bid.symbol}",
      "poke keyHash ${.key}",
      "drop key",
      "jstr",
      "encr",
      "save $keyHash",
      "done 'Claim for $proposalID submitted'",
      "@submitted",
      "done 'Claim for $proposalID already submitted!'"
    ],
    "determineClaim/symbol/amount/target/timestamp": [
      "time 120000",
      "logs 'Attempting to determine unclaimed deal for $amount $symbol at $target'",
      "poke lookBack 5",
      "call '${symbol}::history/$target/$lookBack'",
      "test 1 @noClaim",
      "poke txIDs",
      "# logs 'Found possible claim TXIDs: $txIDs'",
      "poke count 0",
      "@loopStart",
      "with txID peek txIDs[$count]",
      "call '${symbol}::transaction/$txID'",
      "true '${.amount} == $amount' 1 @loopEndNull",
      "true '${.timestamp} > ($timestamp - $txGracePeriod)' 1 @loopEndNull",
      "true '${.timestamp} < ($timestamp + $claimDeadline + $txGracePeriod)' 1 @loopEndNull",
      "with targetEqual call addressMatches/$target/${.target}",
      "test targetEqual 1 @loopEndNull",
      "data ${.id}",
      "poke count $lookBack",
      "jump @loopEnd",
      "@loopEndNull",
      "data null",
      "@loopEnd",
      "loop @loopStart count '< $lookBack'",
      "void 'null' @noClaim",
      "logs 'Claim determined for $amount $symbol -> deal $'",
      "done",
      "@noClaim",
      "logs 'Could not determine claim for $amount $symbol to $target!'",
      "done null"
    ],
    "pushTransaction/proposalID/rawTx": [
      "time 300000",
      "peek rawTx",
      "call allocation::push",
      "call remitted/$proposalID/$"
    ],
    "remitted/proposalID/transactionID": [
      "time 120000",
      "call getProposal/$proposalID",
      "with timeNow [date,now] [math,'round']",
      "poke .deal.pushtime '$timeNow'",
      "flow transactionID '_reset' @resetTx 1",
      "test .deal.bid.txid 1 @setData",
      "warn 'already pushed remittance transaction for $proposalID!'",
      "fail 'already pushed remittance transaction for $proposalID!'",
      "@setData",
      "flow transactionID '_timeset' @saveData 1",
      "poke .deal.bid.txid $transactionID",
      "poke askAmount ${.deal.ask.amount}",
      "poke bidAmount ${.deal.bid.amount}",
      "poke dealProfit ${.deal.fees.allocator}",
      "with fromBase [data,${.deal.ask.symbol}] [case,upper]",
      "with toSymbol [data,${.deal.bid.symbol}] [case,upper]",
      "poke accountID ${.accountID}",
      "jump @saveData",
      "@resetTx",
      "poke .deal.bid.txid null",
      "@saveData",
      "poke keyHash ${.key}",
      "drop key",
      "jstr",
      "encr",
      "save $keyHash",
      "flow transactionID {'_reset':1,'_timeset':1} 2",
      "done 'no remittance transaction pushed for $proposalID!'",
      "fork rebalanceCall/${allocation.accountID}/$fromBase/$askAmount",
      "fork rebalanceCall/${allocation.accountID}/$toSymbol/-$bidAmount",
      "fork securityReserveLock/${allocation.accountID}/$proposalID/unlockWithFee",
      "# send notification",
      "with notify [data,{pair:'$fromBase -> $toSymbol',dealDetails:'  ID: ${proposalID}\n  received: ${askAmount} ${fromBase}\n  sent: ${bidAmount} ${toSymbol}\n  profit: ${dealProfit} ${fromBase}'}] [fork,'allocation::notify/$accountID/dealRemitted']",
      "done 'pushed remittance transaction for $proposalID'"
    ],
    "rebalanceCall/allocationID/symbol/amount": [
      "gate limit $gateLimiter '$errorStringBusy'",
      "call 'allocation::doRebalancePair/$allocationID/$symbol/$amount'"
    ],
    "securityReserveLock/accountID/proposalID/action": [
      "gate limit $gateLimiter '$errorStringBusy'",
      "call getProposal/$proposalID",
      "void 1 2",
      "fail 'proposal $proposalID does not exist!'",
      "call 'valuations::rate/${.deal.ask.symbol}/hy/${.deal.ask.amount}'",
      "ship @lockAmount @lockAmount 1 1",
      "warn 'Cannot $action security reserve amount on account $accountID!'",
      "fail 'Cannot $action security reserve amount on account $accountID!'",
      "@lockAmount",
      "call 'allocation::securityReserveAccountLock/$accountID/$action/$'"
    ],
    "addressMatches/targetA/targetB": [
      "call decodeUnifiedAddress/$targetA",
      "indx '$targetB'",
      "true '> -1' 1 2",
      "done 1",
      "done 0"
    ],
    "dealStatus": [
      "time 60000",
      "with disputed [data,${.dispute}] [root,1,4] [void,any,1,2] [done,null] [done] [tran,.timestamp,1,2] [ship,2,2,1,1] [done,null]",
      "tran .deal 1 @failure",
      "void .creation any @failure 1",
      "poke dealID ${.id}",
      "with txSettled [data,'${.bid.txid}'] [incl,'_',1,2] [done,1] [done,0]",
      "test txSettled @isSettled",
      "test .ask.txid 1 @zeroAskProgress",
      "with askTx [call,'${.ask.symbol}::transaction/${.ask.txid}'] [have,.id,2,1] [done,null]",
      "test askTx.timestamp 1 @zeroAskProgress",
      "# is our transaction target equal to the claimed target?",
      "with targetEqual call addressMatches/${.ask.target}/${askTx.target}",
      "# is the transaction timestamp set before the proposal creation time?",
      "with txPremature [ship,askTx.timestamp,1,3,3,3] [true,'${askTx.timestamp} < (${.creation} - $txGracePeriod)',1,2] [done,1] [done,0]",
      "# reject the transaction if either premature or non-equal target",
      "with txRejected [true,'$txPremature',1,2] [done,1] [true,'${.ask.amount} > 0 and ${.bid.amount} > 0 and $targetEqual and ${askTx.amount} == ${.ask.amount}',1,-1] [done,0]",
      "test txRejected @zeroAskProgress",
      "with askConfirmsMax [call,'${.ask.symbol}::confirmed',1,2] [ship,2,1,1,1] [data,1]",
      "with askConfirmsNow [call,'${.ask.symbol}::confirmed/${.ask.txid}',1,2] [ship,2,1,1,1] [done,0]",
      "with askProgress [math,'$askConfirmsNow / $askConfirmsMax'] [true,'>1',1,2] [done,1]",
      "jump @calcBidProgress",
      "@zeroAskProgress",
      "poke askProgress 0",
      "@calcBidProgress",
      "test .bid.txid 3",
      "poke bidProgress 0",
      "jump @finalize",
      "with bidConfirmsMax [call,'${.bid.symbol}::confirmed',1,2] [ship,2,1,1,1] [data,1]",
      "with bidConfirmsNow [hook,2] [call,'${.bid.symbol}::confirmed/${.bid.txid}',1,2] [ship,2,1,1,1] [done,0]",
      "with bidProgress [math,'($bidConfirmsNow / $bidConfirmsMax) + 0.05'] [true,'>1',1,2] [done,1]",
      "jump @finalize",
      "@isSettled",
      "poke askProgress 1",
      "poke bidProgress 1",
      "@finalize",
      "poke .disputed $disputed",
      "with progress call calculateAndSaveProgress/$dealID/$askProgress/$bidProgress",
      "# without proper blockchain-based timestamp keep the deal pending",
      "with progress [true,'$txSettled',9,1] [true,'< 0.05',1,5] [data,${.ask.txid}] [void,1,2] [done,0] [data,'0.025'] [true,'< 0',1,2] [done,0] [true,'> 1',1,2] [done,1]",
      "poke .progress $progress",
      "with timeNow date now",
      "with deadline math '${.creation} + $claimDeadline'",
      "with status [data,'stasis'] [true,'$txRejected',1,2] [done,'rejected'] [true,'$progress == 1',1,2] [done,'done'] [true,'$progress == 0 and $deadline < $timeNow',1,2] [done,'timeout'] [true,'$progress > 0 and $progress <= 0.025',1,2] [done,'claimed'] [true,'$progress > 0.025 and $progress < 0.5',1,2] [done,'confirming'] [true,'$progress == 0.5',1,2] [done,'accepted'] [true,'$progress >= 0.5 and $progress < 1',1,2] [done,'remitting'] [done,'open']",
      "poke .status $status",
      "done",
      "@failure",
      "done null"
    ],
    "calculateAndSaveProgress/dealID/askProgress/bidProgress": [
      "with keyHash [data,'deal progress ${dealID}'] [hash]",
      "load $keyHash 1 @skipcompare",
      "jpar 1 @skipcompare",
      "poke savedProgress",
      "with askProgress math 'min( (round( max($askProgress,${savedProgress.ask})*10000 ) / 10000) ,1)'",
      "with bidProgress math 'min( (round( max($bidProgress,${savedProgress.bid})*10000 ) / 10000) ,1)'",
      "@skipcompare",
      "data {ask:$askProgress,bid:$bidProgress}",
      "save $keyHash",
      "math 'round(($askProgress + $bidProgress) / 0.0002) / 10000'"
    ],
    "find/string": [
      "root 2 1",
      "fail 'Must be root to use find method!'",
      "time 600000",
      "call list/complete/250/0",
      "poke dealIDs",
      "size",
      "math 'min($,250)'",
      "poke listLength",
      "poke cnt 0",
      "poke foundIDs []",
      "peek dealIDs",
      "@startLoop",
      "prog $cnt 250",
      "with dealID peek dealIDs[$cnt]",
      "call status/$dealID",
      "jstr",
      "find '$string' @foundDeal",
      "loop @startLoop cnt <$listLength",
      "done 'Deal containing query | $string | not found!'",
      "@foundDeal",
      "prog auto",
      "done $dealID"
    ],
    "list/type/amount=12/offset=0": [
      "flow type {pending:@pending,complete:@complete} 1",
      "fail 'Must specify type to list: complete, pending'",
      "@pending",
      "peek local::proposalList []",
      "jump @finalize",
      "@complete",
      "peek local::completeList []",
      "@finalize",
      "with endpoint math '0 + $offset + $amount'",
      "pick $offset $endpoint",
      "with [] head 16"
    ],
    "status/proposalID": [
      "gate limit $gateLimiter '$errorStringBusy'",
      "time 60000",
      "call getProposal/$proposalID",
      "call dealStatus",
      "with local::statusRequests math '-1'",
      "void @failure",
      "done",
      "@failure",
      "fail 503 'Cannot read proposal data of $proposalID!'"
    ],
    "settle/proposalID/transactionID=null": [
      "root 2 1",
      "fail 'Must be root to settle a deal!'",
      "void transactionID any 1 2",
      "fail 'Must include a transaction ID to settle deal!'",
      "call getProposal/$proposalID",
      "poke keyHash ${.key}",
      "poke .deal.bid.txid '_${transactionID}'",
      "with fromBase [data,${.deal.ask.symbol}] [case,upper]",
      "with toSymbol [data,${.deal.bid.symbol}] [case,upper]",
      "poke accountID ${.accountID}",
      "@saveData",
      "drop key",
      "jstr",
      "encr",
      "save $keyHash",
      "call deleteFromProposalList/$keyHash",
      "# send notification",
      "with notify [data,{pair:'$fromBase -> $toSymbol',dealDetails:'  ID: ${proposalID}\n  TXID settlement: ${transactionID}'}] [fork,'allocation::notify/$accountID/dealSettled']",
      "done 'Deal $proposalID force settled with transaction ID $transactionID.'"
    ],
    "dispute/proposalID/transactionID=null": [
      "gate limit $gateLimiter '$errorStringBusy'",
      "call getProposal/$proposalID",
      "poke keyHash ${.key}",
      "# check if proposal deadline has passed + 2 hours",
      "with timeNow [date,now] [math,round]",
      "root @newDispute",
      "true '(${.deal.deadline} + $purgeDeadline) > $timeNow' 1 3",
      "with waitHours math 'round($purgeDeadline / 3600)'",
      "fail 'The deal you are trying to dispute is still pending! Please wait $waitHours hours for it to finalize, before disputing again.'",
      "# is this a new or amended dispute?",
      "void .dispute 'any' @newDispute @alreadyDisputed",
      "@newDispute",
      "poke .dispute {timestamp:$timeNow,txid:'$transactionID',comment:$@}",
      "with .dispute.comment [take,3] [join,'/']",
      "with .deal.deadline math '$timeNow + 3600'",
      "void .deal.ask.txid 'null' 1 3",
      "void transactionID 'null' 2 1",
      "poke .deal.ask.txid '$transactionID'",
      "with fromBase [data,${.deal.ask.symbol}] [case,upper]",
      "with toSymbol [data,${.deal.bid.symbol}] [case,upper]",
      "poke txidAsk ${.deal.ask.txid}",
      "poke txidBid ${.deal.bid.txid}",
      "poke accountID ${.accountID}",
      "jump @saveData",
      "@alreadyDisputed",
      "true '(${.dispute.timestamp} + (24 * 3600)) < $timeNow' @newDispute",
      "fail 'This deal has already been disputed! Please wait 24 hours for it to be handled. Otherwise dispute again.'",
      "# write dispute status",
      "@saveData",
      "drop key",
      "jstr",
      "encr",
      "save $keyHash",
      "# requeue deal",
      "call requeueToProposalList/$keyHash",
      "# send notification",
      "with notify [data,{pair:'$fromBase -> $toSymbol',dealDetails:'  ID: ${proposalID}\n  TXID ask: ${txidAsk}\n  TXID bid: ${txidBid}'}] [fork,'allocation::notify/$accountID/dealDisputed']",
      "done 'Dispute for $proposalID submitted.'"
    ],
    "setAccountLock/accountID/symbol/lockTime": [
      "true '$lockTime == 0' 2",
      "with lockTime [date,now] [math,'round'] [math,'+ $maxAccountLock']",
      "poke local::lockTime[$accountID][$symbol] $lockTime"
    ],
    "getAccountLock/accountID/symbol": [
      "with timeNow [date,now] [math,'round']",
      "peek local::lockTime[$accountID][$symbol] 0",
      "true '$ < $timeNow' 2 1",
      "done true",
      "done false"
    ],
    "deleteAccountLock/accountID": [
      "peek local::lockTime",
      "excl '$accountID'",
      "poke local::lockTime"
    ],
    "readHistory/timeOffset/timeLimit": [
      "with timeUntil [date,now] [math,'- $timeOffset']",
      "with timeFrom math '$timeUntil - $timeLimit'",
      "peek local::completeList []",
      "each readHistoryObject/$timeFrom/$timeUntil",
      "excl null"
    ],
    "readHistoryObject/timeFrom/timeUntil": [
      "load ${.value} 2 1",
      "done null",
      "decr 1 -1",
      "jpar 1 -2",
      "true '${.timestamp} >= $timeUntil or ${.timestamp} < $timeFrom' -3"
    ],
    "decodeUnifiedAddress/address": [
      "hook @notUnifiedAddress",
      "with symbol_ [peek,address] [splt,':'] [pick]",
      "call 'unified-asset::decompress/$symbol_/$address'",
      "done",
      "@notUnifiedAddress",
      "peek address"
    ],
    "ledgers": [
      "call allocation::ledgers"
    ],
    "banking": [
      "call allocation::banking"
    ],
    "deal.js": [
      "serv modules/deal/deal.js"
    ],
    "swap": [
      "serv modules/deal/deal.html"
    ],
    "test": [
    ]
  },
  "router": {
    "swap": {
      "_access": "root",
      "_this": "Swap Web UI.",
      "_ui": "deal/swap"
    },
    "deal.js": {
      "_access": "root",
      "_hidden": true,
      "_this": "Client side code for swap overview generation"
    },
    "_help": "Deal engine for deals between node and clients.",
    "pairs": "List swappable pairs.",
    "estimate": {
      "_help": "Estimate a deal.",
      "_ref": {
        "_list": "base",
        "_help": "Specify the base symbol to offer in trade.",
        "_ref": {
          "_help": "Specify the desired symbol to receive units in.",
          "_list": "symbol",
          "_this": "symbol",
          "_ref": {
            "_help": "Specify the amount of base symbol to trade.",
            "_list": "amount",
            "_this": "amount"
          }
        }
      }
    },
    "proposal": {
      "_help": "Propose a deal to trade on.",
      "_ref": {
        "_list": "base",
        "_help": "Specify the base symbol to offer in trade.",
        "_ref": {
          "_help": "Specify the desired symbol to receive units in.",
          "_list": "symbol",
          "_ref": {
            "_help": "Specify the amount of base symbol to trade.",
            "_list": "amount",
            "_ref": {
              "_help": "The target address at which to receive the incoming amount.",
              "_list": "target",
              "_this": "target"
            }
          }
        }
      }
    },
    "remit": {
      "_help": "Remit a payment transaction to a proposal ID.",
      "_ref": {
        "_list": "proposalID",
        "_help": "Specify the proposal ID to call the claim for.",
        "_ref": {
          "_list": "rawTx",
          "_this": "The raw transaction to remit payment."
        }
      }
    },
    "claim": {
      "_help": "Claim payment proof for proposal ID. Necessary for a swap to complete, and adds security to the swap.",
      "_access": "root",
      "_ref": {
        "_list": "proposalID",
        "_help": "Specify the proposal ID to call the claim for.",
        "_ref": {
          "_list": "transactionID",
          "_this": "The transaction ID which shall contain the proof."
        }
      }
    },
    "status": {
      "_help": "Check the status of a proposal or deal.",
      "_ref": {
        "_list": "proposalID",
        "_this": "Specify the proposal or deal ID to check the status of."
      }
    },
    "find": {
      "_help": "Find deals containing string.",
      "_access": "root",
      "_ref": {
        "_list": "string",
        "_this": "Specify the string to search for."
      }
    },
    "list": {
      "_help": "Return deal ID list.",
      "_ref": {
        "_list": "status",
        "_help": "Specify 'complete' or 'pending'.",
        "_ref": {
          "_list": "amount",
          "_help": "Specify the amount of deal IDs to return.",
          "_ref": {
            "_list": "offset",
            "_this": "The offset to start from the list."
          }
        }
      }
    },
    "dispute": {
      "_help": "Dispute a deal.",
      "_ref": {
        "_list": "proposalID",
        "_ellipsis": true,
        "_this": "Specify the deal ID to dispute."
      }
    },
    "settle": {
      "_help": "Force settle a deal.",
      "_access": "root",
      "_ref": {
        "_list": "proposalID",
        "_ellipsis": true,
        "_this": "Specify the deal ID to force settlement of."
      }
    },
    "test": "TEST",
    "ledgers": "List the supported digital ledgers for swap deals.",
    "banking": "List the supported virtual ledgers for swap deals."
  }
}
