{
  "symbol": "nxt.jinn",
  "name": "Jinn",
  "module": "quartz",
  "import": "nxt",
  "mode": "nxt.token",
  "contract": "3061160746493230502",
  "originator": "NXT-Q4N3-V2QJ-S3GT-FW4Z9",
  "factor": 0
}
