{
  "symbol": "ubq.qwark",
  "name": "Qwark",
  "import": "ubq",
  "contract": "0x4b4899a10f3e507db207b0ee2426029efa168a67",
  "originator": "0x5e772e6c8332db4fc8255cf7c10e10b2cae8be3e",
  "factor": 8
}
