{
  "symbol": "bnbbep2",
  "name": "Binance Chain token (BNB BEP2)",
  "info": "BNB (BEP2) was launched through an initial coin offering in 2017, 11 days before the Binance cryptocurrency exchange went online. It was originally issued as an ERC-20 token running on the Ethereum network, with a total supply capped at 200 million coins, and 100 million BNBs offered in the ICO. However, the ERC-20 BNB coins were swapped with BEP2 BNB on a 1:1 ratio in April 2019 with the launch of the Binance Chain mainnet, and are now no longer hosted on Ethereum.",
  "mode": "binance",
  "factor": 8,
  "fee": "0.000375",
  "features": {
    "message": true
  },
  "import": "bnb-bep2",
  "keygen-base": "bnb",
  "cache": 10000,
  "contract": null
}
